# Blender MTL File: 'None'
# Material Count: 2

newmtl Standard24
Ns 96.078431
Ka 0.000000 0.000000 0.000000
Kd 1.000000 1.000000 1.000000
Ks 0.025882 0.025882 0.025882
Ni 1.000000
d 1.000000
illum 2
map_Kd el_box_2.png

newmtl Standard3
Ns 96.078431
Ka 0.000000 0.000000 0.000000
Kd 1.000000 1.000000 1.000000
Ks 0.029804 0.029804 0.029804
Ni 1.000000
d 1.000000
illum 2
map_Kd el_box_1.png
