# Blender MTL File: 'None'
# Material Count: 8

newmtl Standard10
Ns 96.078431
Ka 0.000000 0.000000 0.000000
Kd 0.690196 0.690196 0.690196
Ks 0.012549 0.012549 0.012549
Ni 1.000000
d 0.000000
illum 2
map_Kd damage-decals-decal-asphalt-damaged_640v640.png
map_d damage-decals-decal-asphalt-damaged_640v640.png

newmtl Standard2
Ns 96.078431
Ka 0.000000 0.000000 0.000000
Kd 0.690196 0.690196 0.690196
Ks 0.012549 0.012549 0.012549
Ni 1.000000
d 1.000000
illum 2
map_Kd metal.jpg

newmtl Standard24
Ns 96.078431
Ka 0.000000 0.000000 0.000000
Kd 0.690196 0.690196 0.690196
Ks 0.012549 0.012549 0.012549
Ni 1.000000
d 1.000000
illum 2
map_Kd el_box_2.png

newmtl Standard3
Ns 96.078431
Ka 0.000000 0.000000 0.000000
Kd 0.690196 0.690196 0.690196
Ks 0.012549 0.012549 0.012549
Ni 1.000000
d 1.000000
illum 2
map_Kd el_box_1.png

newmtl Standard4
Ns 96.078431
Ka 0.000000 0.000000 0.000000
Kd 0.690196 0.690196 0.690196
Ks 0.012549 0.012549 0.012549
Ni 1.000000
d 1.000000
illum 2
map_Kd aircond_1.png

newmtl Standard5
Ns 96.078431
Ka 0.000000 0.000000 0.000000
Kd 0.690196 0.690196 0.690196
Ks 0.012549 0.012549 0.012549
Ni 1.000000
d 0.990000
illum 2
map_Kd metal.jpg

newmtl Standard6
Ns 96.078431
Ka 0.000000 0.000000 0.000000
Kd 0.690196 0.690196 0.690196
Ks 0.012549 0.012549 0.012549
Ni 1.000000
d 1.000000
illum 2
map_Kd metal.jpg

newmtl Standard8
Ns 96.078431
Ka 0.000000 0.000000 0.000000
Kd 0.690196 0.690196 0.690196
Ks 0.012549 0.012549 0.012549
Ni 1.000000
d 1.000000
illum 2
map_Kd el_box_3.png
